아디다스, 나이키 기사 비교분석
…
Code

glimpse(senti_dic_df)

Rows: 14,855
Columns: 2
$ X1 <chr> "(-;", "(;_;)", "(^^)", "(^-^)", "(^^*", "(^_^)", "(^_^;", "(^o^)",…
$ X2 <dbl> 1, -1, 1, 1, 1, 1, -1, 1, -1, -1, -1, -1, 1, 1, 1, 1, 1, -1, 1, -1,…

Code

senti_dic_df[1-5, ]

# A tibble: 14,854 × 2
   X1        X2
   <chr>  <dbl>
 1 (-;        1
 2 (;_;)     -1
 3 (^^)       1
 4 (^^*       1
 5 (^_^)      1
 6 (^_^;     -1
 7 (^o^)      1
 8 (-_-)     -1
 9 (T_T)     -1
10 (ㅡㅡ)    -1
# … with 14,844 more rows
…
긍정 단어 중, 감사, 대상이 부정적인 의미로 쓰임에도 긍정적 단어로 분류되어 삭제하게 되었습니다.

Code

m_df2 %>% 
  unnest_tokens(word, text) %>% 
  left_join(senti_dic_df) %>% 
  mutate(sScore = ifelse(sScore >= 1, "긍정",
                         ifelse(sScore <= -1, "부정", "중립"))) 

Joining, by = "word"

# A tibble: 699,206 × 4
   ID    label word   sScore
   <fct> <chr> <chr>  <chr> 
 1 1     0     롯데   <NA>  
 2 1     0     百     <NA>  
 3 1     0     올해   <NA>  
 4 1     0     마지막 <NA>  
 5 1     0     정기   <NA>  
 6 1     0     세일   긍정  
 7 1     0     최대   <NA>  
 8 1     0     50     <NA>  
 9 1     0     할인   긍정  
10 1     0     판매   <NA>  
# … with 699,196 more rows
…
★ 부정어로는 살인, 눈물, 위기등이 나온 이유는 나이키 ceo의 과거 살인 행적 고백때문에 나온 것입니다.

Code

s_df2 %>% 
  unnest_tokens(word, text) %>% 
  filter(!word %in% c("피해")) %>%
  left_join(senti_dic_df) %>% 
  mutate(sScore = ifelse(sScore >= 1, "긍정",
                         ifelse(sScore <= -1, "부정", "중립"))) 

Joining, by = "word"

# A tibble: 293,532 × 4
   ID    label word     sScore
   <fct> <chr> <chr>    <chr> 
 1 1     0     1        <NA>  
 2 1     0     차       <NA>  
 3 1     0     협력사만 <NA>  
 4 1     0     7        <NA>  
 5 1     0     만곳     <NA>  
 6 1     0     인권경영 <NA>  
 7 1     0     모범생   <NA>  
 8 1     0     바스프의 <NA>  
 9 1     0     공급망   <NA>  
10 1     0     실사법   <NA>  
# … with 293,522 more rows
…
