아디다스, 나이키 기사 비교분석
…
Code

glimpse(senti_dic_df)

Rows: 14,855
Columns: 2
$ X1 <chr> "(-;", "(;_;)", "(^^)", "(^-^)", "(^^*", "(^_^)", "(^_^;", "(^o^)",…
$ X2 <dbl> 1, -1, 1, 1, 1, 1, -1, 1, -1, -1, -1, -1, 1, 1, 1, 1, 1, -1, 1, -1,…

Code

senti_dic_df[1-5, ]

# A tibble: 14,854 × 2
   X1        X2
   <chr>  <dbl>
 1 (-;        1
 2 (;_;)     -1
 3 (^^)       1
 4 (^^*       1
 5 (^_^)      1
 6 (^_^;     -1
 7 (^o^)      1
 8 (-_-)     -1
 9 (T_T)     -1
10 (ㅡㅡ)    -1
# … with 14,844 more rows
…
두 브랜드 모두 긍정 단어 중 함께,할인,세일이 너무 많고, 딱히 긍정적 의미로 쓰이지 않는 것 같아 삭제했습니다.

Code

m_df2 %>% 
  unnest_tokens(word, text) %>% 
  left_join(senti_dic_df) %>% 
  mutate(sScore = ifelse(sScore >= 1, "긍정",
                         ifelse(sScore <= -1, "부정", "중립"))) 

Joining, by = "word"

# A tibble: 140,202 × 4
   ID    label word           sScore
   <fct> <chr> <chr>          <chr> 
 1 1     0     뉴욕증시       <NA>  
 2 1     0     마감           <NA>  
 3 1     0     인플레이션     <NA>  
 4 1     0     우려           <NA>  
 5 1     0     s              <NA>  
 6 1     0     p              <NA>  
 7 1     0     500            <NA>  
 8 1     0     연중           <NA>  
 9 1     0     최저점         <NA>  
10 1     0     뉴욕증권거래소 <NA>  
# … with 140,192 more rows
…
★ 긍정어의 수가 대체로 많은 것을 보아 긍정적인 이미지로 보여지는 것을 알 수 있습니다.

Code

s_df2 %>% 
  unnest_tokens(word, text) %>% 
  filter(!word %in% c("피해")) %>%
  left_join(senti_dic_df) %>% 
  mutate(sScore = ifelse(sScore >= 1, "긍정",
                         ifelse(sScore <= -1, "부정", "중립"))) 

Joining, by = "word"

# A tibble: 66,415 × 4
   ID    label word     sScore
   <fct> <chr> <chr>    <chr> 
 1 1     0     엔데믹   <NA>  
 2 1     0     후       <NA>  
 3 1     0     첫       <NA>  
 4 1     0     가을세일 <NA>  
 5 1     0     풍성     <NA>  
 6 1     0     쇼핑     <NA>  
 7 1     0     후엔     <NA>  
 8 1     0     문화행사 <NA>  
 9 1     0     즐기세요 <NA>  
10 1     0     img03    <NA>  
# … with 66,405 more rows
…
